%YAML 1.1
%TAG !u! tag:unity3d.com,2011:
--- !u!114 &11400000
MonoBehaviour:
  m_ObjectHideFlags: 0
  m_CorrespondingSourceObject: {fileID: 0}
  m_PrefabInstance: {fileID: 0}
  m_PrefabAsset: {fileID: 0}
  m_GameObject: {fileID: 0}
  m_Enabled: 1
  m_EditorHideFlags: 0
  m_Script: {fileID: 11500000, guid: 4c5965eeddf72dc4eb58beaadd734310, type: 3}
  m_Name: Actor1_BaseStats
  m_EditorClassIdentifier: 
  m_statSet:
    keyData:
    - {fileID: 11400000, guid: 76a8f2474a8e36849b2e5ee1e0a77182, type: 2}
    - {fileID: 11400000, guid: 283491beb66edfa4887475aae47fc137, type: 2}
    valueData:
    - 2
    - 3
