%YAML 1.1
%TAG !u! tag:unity3d.com,2011:
--- !u!114 &11400000
MonoBehaviour:
  m_ObjectHideFlags: 0
  m_CorrespondingSourceObject: {fileID: 0}
  m_PrefabInstance: {fileID: 0}
  m_PrefabAsset: {fileID: 0}
  m_GameObject: {fileID: 0}
  m_Enabled: 1
  m_EditorHideFlags: 0
  m_Script: {fileID: 11500000, guid: 07ef09e93c2a5034b9eeb61513b10786, type: 3}
  m_Name: ArmorDebuff
  m_EditorClassIdentifier: 
  m_modifier:
    m_targetStat: {fileID: 11400000, guid: 76a8f2474a8e36849b2e5ee1e0a77182, type: 2}
    m_modifierType: 0
    m_amount: 2
